<?xml version="1.0" encoding="UTF-8"?>
<svg width="360px" height="360px" viewBox="0 0 360 360" version="1.1" xmlns="http://www.w3.org/2000/svg" xmlns:xlink="http://www.w3.org/1999/xlink">
    <!-- Generator: Sketch 50.2 (55047) - http://www.bohemiancoding.com/sketch -->
    <title>Add Button</title>
    <desc>Created with Sketch.</desc>
    <defs></defs>
    <g id="Add-Button" stroke="none" stroke-width="1" fill="none" fill-rule="evenodd">
        <path d="M164.802239,165 L65,165 L65,194.472528 L164.802239,194.472528 L164.802239,294.274767 L194.274767,294.274767 L194.274767,194.472528 L294.077006,194.472528 L294.077006,165 L194.274767,165 L194.274767,65.1977608 L164.802239,65.1977608 L164.802239,165 Z M180,360 C80.588745,360 0,279.411255 0,180 C0,80.588745 80.588745,0 180,0 C279.411255,0 360,80.588745 360,180 C360,279.411255 279.411255,360 180,360 Z" id="Combined-Shape" fill="#CCCCCC"></path>
    </g>
</svg>